^D:\_PROGRAMMINGPROJECTS\_BASIC_CPP\BASIC_CPP\BASIC_CPP\DEBUG\SOURCE.OBJ
/OUT:"D:\_PROGRAMMINGPROJECTS\_BASIC_CPP\BASIC_CPP\DEBUG\BASIC_CPP.EXE" /INCREMENTAL /NOLOGO KERNEL32.LIB USER32.LIB GDI32.LIB WINSPOOL.LIB COMDLG32.LIB ADVAPI32.LIB SHELL32.LIB OLE32.LIB OLEAUT32.LIB UUID.LIB ODBC32.LIB ODBCCP32.LIB /MANIFEST /MANIFESTUAC:"level='asInvoker' uiAccess='false'" /manifest:embed /DEBUG:FASTLINK /PDB:"D:\_PROGRAMMINGPROJECTS\_BASIC_CPP\BASIC_CPP\DEBUG\BASIC_CPP.PDB" /SUBSYSTEM:CONSOLE /TLBID:1 /DYNAMICBASE /NXCOMPAT /IMPLIB:"D:\_PROGRAMMINGPROJECTS\_BASIC_CPP\BASIC_CPP\DEBUG\BASIC_CPP.LIB" /MACHINE:X86 DEBUG\SOURCE.OBJ
^D:\_PROGRAMMINGPROJECTS\_BASIC_CPP\BASIC_CPP\BASIC_CPP\DEBUG\SOURCE.OBJ|D:\_PROGRAMMINGPROJECTS\_BASIC_CPP\BASIC_CPP\BASIC_CPP\DEBUG\VECTOR.OBJ
/OUT:"D:\_PROGRAMMINGPROJECTS\_BASIC_CPP\BASIC_CPP\DEBUG\BASIC_CPP.EXE" /INCREMENTAL /NOLOGO KERNEL32.LIB USER32.LIB GDI32.LIB WINSPOOL.LIB COMDLG32.LIB ADVAPI32.LIB SHELL32.LIB OLE32.LIB OLEAUT32.LIB UUID.LIB ODBC32.LIB ODBCCP32.LIB /MANIFEST /MANIFESTUAC:"level='asInvoker' uiAccess='false'" /manifest:embed /DEBUG:FASTLINK /PDB:"D:\_PROGRAMMINGPROJECTS\_BASIC_CPP\BASIC_CPP\DEBUG\BASIC_CPP.PDB" /SUBSYSTEM:CONSOLE /TLBID:1 /DYNAMICBASE /NXCOMPAT /IMPLIB:"D:\_PROGRAMMINGPROJECTS\_BASIC_CPP\BASIC_CPP\DEBUG\BASIC_CPP.LIB" /MACHINE:X86 DEBUG\SOURCE.OBJ
DEBUG\VECTOR.OBJ
